<svg width="66" height="50" viewBox="0 0 66 50" fill="none" xmlns="http://www.w3.org/2000/svg">
<g clip-path="url(#clip0)">
<path d="M64.6566 49.2984V49.4285H64.7798C64.807 49.4285 64.8304 49.4222 64.8472 49.4121C64.8628 49.402 64.8719 49.3843 64.8719 49.3628C64.8719 49.3414 64.8628 49.325 64.8472 49.3149C64.8304 49.3035 64.807 49.2984 64.7798 49.2984H64.6566ZM64.7811 49.2075C64.8446 49.2075 64.8939 49.2214 64.9289 49.2492C64.9639 49.277 64.9808 49.3149 64.9808 49.3628C64.9808 49.4033 64.9678 49.4361 64.9393 49.4626C64.9121 49.4879 64.8732 49.5043 64.8213 49.5106L64.9847 49.6937H64.8576L64.7059 49.5119H64.6566V49.6937H64.5503V49.2075H64.7811ZM64.7487 49.8617C64.807 49.8617 64.8615 49.8503 64.9108 49.8289C64.9613 49.8074 65.0054 49.7783 65.043 49.7417C65.0806 49.7051 65.1105 49.6622 65.1325 49.6116C65.1533 49.5624 65.1649 49.5093 65.1649 49.4525C65.1649 49.3957 65.1533 49.3426 65.1325 49.2934C65.1105 49.2441 65.0806 49.1999 65.043 49.1633C65.0054 49.1267 64.9613 49.0976 64.9108 49.0762C64.8615 49.056 64.807 49.0459 64.7487 49.0459C64.6903 49.0459 64.6346 49.056 64.584 49.0762C64.5321 49.0976 64.4867 49.1267 64.4491 49.1633C64.4115 49.1999 64.3817 49.2441 64.3609 49.2934C64.3389 49.3426 64.3285 49.3957 64.3285 49.4525C64.3285 49.5093 64.3389 49.5624 64.3609 49.6116C64.3817 49.6622 64.4115 49.7051 64.4491 49.7417C64.4867 49.7783 64.5321 49.8074 64.584 49.8289C64.6346 49.8503 64.6903 49.8617 64.7487 49.8617ZM64.7487 48.9284C64.8252 48.9284 64.8952 48.9423 64.9626 48.9701C65.0288 48.9966 65.0858 49.0345 65.1364 49.0825C65.1857 49.1292 65.2246 49.1848 65.2531 49.2492C65.2816 49.3123 65.2959 49.3805 65.2959 49.4525C65.2959 49.5245 65.2816 49.5927 65.2531 49.6558C65.2246 49.719 65.1857 49.7745 65.1364 49.8225C65.0858 49.8693 65.0288 49.9072 64.9626 49.9349C64.8952 49.9627 64.8252 49.9766 64.7487 49.9766C64.6709 49.9766 64.5995 49.9627 64.5321 49.9349C64.4647 49.9072 64.4063 49.8693 64.357 49.8225C64.3078 49.7745 64.2689 49.719 64.2403 49.6558C64.2118 49.5927 64.1975 49.5245 64.1975 49.4525C64.1975 49.3805 64.2118 49.3123 64.2403 49.2492C64.2689 49.1848 64.3078 49.1292 64.357 49.0825C64.4063 49.0345 64.4647 48.9966 64.5321 48.9701C64.5995 48.9423 64.6709 48.9284 64.7487 48.9284ZM14.225 47.0555C14.225 46.1286 14.8487 45.367 15.868 45.367C16.8418 45.367 17.4993 46.0957 17.4993 47.0555C17.4993 48.0153 16.8418 48.744 15.868 48.744C14.8487 48.744 14.225 47.9825 14.225 47.0555ZM18.6094 47.0555V44.4186H17.4319V45.0589C17.0584 44.5841 16.4917 44.286 15.7214 44.286C14.2029 44.286 13.0125 45.4453 13.0125 47.0555C13.0125 48.667 14.2029 49.8251 15.7214 49.8251C16.4917 49.8251 17.0584 49.527 17.4319 49.0522V49.6925H18.6094V47.0555ZM58.3996 47.0555C58.3996 46.1286 59.0234 45.367 60.0427 45.367C61.0178 45.367 61.674 46.0957 61.674 47.0555C61.674 48.0153 61.0178 48.744 60.0427 48.744C59.0234 48.744 58.3996 47.9825 58.3996 47.0555ZM62.7853 47.0555V42.3007H61.6066V45.0589C61.2331 44.5841 60.6664 44.286 59.8961 44.286C58.3776 44.286 57.1872 45.4453 57.1872 47.0555C57.1872 48.667 58.3776 49.8251 59.8961 49.8251C60.6664 49.8251 61.2331 49.527 61.6066 49.0522V49.6925H62.7853V47.0555ZM33.2253 45.3127C33.9839 45.3127 34.4715 45.7762 34.596 46.5921H31.7859C31.9117 45.8305 32.3863 45.3127 33.2253 45.3127ZM33.2487 44.286C31.6614 44.286 30.5514 45.4112 30.5514 47.0555C30.5514 48.7327 31.7068 49.8251 33.3278 49.8251C34.1434 49.8251 34.8904 49.6268 35.5479 49.0863L34.9708 48.2363C34.5169 48.5887 33.9386 48.7882 33.3952 48.7882C32.6366 48.7882 31.9454 48.446 31.7755 47.4963H35.7968C35.8085 47.3536 35.8202 47.2096 35.8202 47.0555C35.8085 45.4112 34.7659 44.286 33.2487 44.286ZM47.4665 47.0555C47.4665 46.1286 48.0903 45.367 49.1095 45.367C50.0834 45.367 50.7409 46.0957 50.7409 47.0555C50.7409 48.0153 50.0834 48.744 49.1095 48.744C48.0903 48.744 47.4665 47.9825 47.4665 47.0555ZM51.8509 47.0555V44.4186H50.6735V45.0589C50.2987 44.5841 49.7333 44.286 48.963 44.286C47.4445 44.286 46.254 45.4453 46.254 47.0555C46.254 48.667 47.4445 49.8251 48.963 49.8251C49.7333 49.8251 50.2987 49.527 50.6735 49.0522V49.6925H51.8509V47.0555ZM40.8167 47.0555C40.8167 48.6556 41.9604 49.8251 43.7059 49.8251C44.5215 49.8251 45.0649 49.6483 45.6536 49.1961L45.0882 48.2692C44.646 48.5786 44.1818 48.744 43.6709 48.744C42.7307 48.7327 42.0395 48.0709 42.0395 47.0555C42.0395 46.0402 42.7307 45.3784 43.6709 45.367C44.1818 45.367 44.646 45.5325 45.0882 45.8419L45.6536 44.9149C45.0649 44.4628 44.5215 44.286 43.7059 44.286C41.9604 44.286 40.8167 45.4555 40.8167 47.0555ZM55.998 44.286C55.3185 44.286 54.8763 44.5954 54.5703 45.0589V44.4186H53.4032V49.6925H54.5819V46.736C54.5819 45.8634 54.9671 45.3784 55.7374 45.3784C55.976 45.3784 56.225 45.4112 56.4739 45.511L56.837 44.43C56.5764 44.3302 56.2366 44.286 55.998 44.286ZM24.4332 44.8379C23.8665 44.4742 23.0858 44.286 22.2248 44.286C20.8528 44.286 19.9697 44.9263 19.9697 45.9745C19.9697 46.8345 20.6271 47.3649 21.8383 47.5304L22.3946 47.6074C23.0404 47.6958 23.3452 47.8613 23.3452 48.1593C23.3452 48.5672 22.9147 48.7996 22.1107 48.7996C21.295 48.7996 20.7062 48.5458 20.3094 48.2477L19.7544 49.1406C20.4002 49.6041 21.2159 49.8251 22.099 49.8251C23.6629 49.8251 24.5693 49.1077 24.5693 48.1037C24.5693 47.1768 23.8561 46.6918 22.6773 46.5264L22.1223 46.4481C21.6127 46.3824 21.2042 46.2839 21.2042 45.9303C21.2042 45.5439 21.5893 45.3127 22.2351 45.3127C22.9263 45.3127 23.5955 45.5666 23.9235 45.7649L24.4332 44.8379ZM39.6262 44.286C38.9467 44.286 38.5045 44.5954 38.1998 45.0589V44.4186H37.0327V49.6925H38.2101V46.736C38.2101 45.8634 38.5953 45.3784 39.3656 45.3784C39.6042 45.3784 39.8532 45.4112 40.1021 45.511L40.4652 44.43C40.2046 44.3302 39.8648 44.286 39.6262 44.286ZM29.5775 44.4186H27.6518V42.8185H26.4613V44.4186H25.363V45.4668H26.4613V47.8726C26.4613 49.0964 26.9489 49.8251 28.3417 49.8251C28.8526 49.8251 29.4413 49.671 29.8148 49.4171L29.475 48.4346C29.1236 48.6329 28.7385 48.7327 28.4324 48.7327C27.8437 48.7327 27.6518 48.3791 27.6518 47.8499V45.4668H29.5775V44.4186ZM11.9712 49.6925V46.3824C11.9712 45.1359 11.1555 44.2974 9.84055 44.286C9.14937 44.2746 8.43615 44.4843 7.93689 45.2243C7.56342 44.6396 6.97468 44.286 6.14733 44.286C5.56897 44.286 5.00358 44.4514 4.56138 45.069V44.4186H3.38261V49.6925H4.57175V46.7689C4.57175 45.8533 5.09305 45.367 5.89835 45.367C6.68031 45.367 7.07583 45.8634 7.07583 46.7575V49.6925H8.26627V46.7689C8.26627 45.8533 8.80961 45.367 9.59157 45.367C10.3956 45.367 10.7807 45.8634 10.7807 46.7575V49.6925H11.9712Z" fill="white"/>
<path d="M65.3827 32.1533V31.3829H65.1765L64.9379 31.9121L64.7005 31.3829H64.4931V32.1533H64.6396V31.5724L64.8626 32.0738H65.0144L65.2374 31.5711V32.1533H65.3827ZM64.0742 32.1533V31.5143H64.3387V31.3842H63.6644V31.5143H63.929V32.1533H64.0742Z" fill="white"/>
<path d="M41.937 35.4671H24.0913V4.23324H41.937V35.4671Z" fill="#FF5F00"/>
<path d="M25.2341 19.8478C25.2341 13.5118 28.2802 7.86793 33.0238 4.23079C29.555 1.57113 25.177 -0.0163257 20.4192 -0.0163257C9.15538 -0.0163257 0.0247726 8.87698 0.0247726 19.8478C0.0247726 30.8185 9.15538 39.7118 20.4192 39.7118C25.177 39.7118 29.555 38.1244 33.0238 35.4647C28.2802 31.8276 25.2341 26.1837 25.2341 19.8478Z" fill="#EB001B"/>
<path d="M66.0052 19.8478C66.0052 30.8185 56.8746 39.7118 45.6108 39.7118C40.853 39.7118 36.475 38.1244 33.0049 35.4647C37.7498 31.8276 40.7959 26.1837 40.7959 19.8478C40.7959 13.5118 37.7498 7.86793 33.0049 4.23079C36.475 1.57113 40.853 -0.0163257 45.6108 -0.0163257C56.8746 -0.0163257 66.0052 8.87698 66.0052 19.8478Z" fill="#F79E1B"/>
</g>
<defs>
<clipPath id="clip0">
<rect width="66" height="50" fill="white"/>
</clipPath>
</defs>
</svg>
